3.9855 3.985811
1.4303 1.475326
1.4076 1.436277
1.3324 1.352324
1.3147 1.358533
1.7773 1.607835
1.5787 1.397247
1.4633 1.481635
1.4341 1.480977
1.4183 1.374486
1.8056 1.747399
1.6286 1.624886
1.5712 1.523903
1.5552 1.570589
1.5548 1.540597
2.1102 1.978283
2.0681 1.743815
1.9626 1.838833
1.8836 1.719180
1.8062 1.688484
1.4724 1.213657
1.3317 1.357221
1.2486 1.307002
1.2123 0.928062
1.2027 1.210918
2.8415 2.862478
2.0621 1.908711
1.9615 1.855234
1.9377 1.796387
1.9327 1.680341
1.3223 1.244874
1.2345 1.188625
1.2116 1.170703
1.2066 1.163033
1.1855 1.191532
1.6346 1.391832
1.6102 1.591217
1.5028 1.277388
1.4975 1.262985
1.4485 1.383298
1.4891 1.472402
1.3697 1.412645
1.3622 1.302181
1.2995 1.200319
1.2601 1.345204
2.1196 2.152276
2.1096 2.077572
2.1084 2.080570
2.0680 2.125482
2.0114 1.987560
1.4634 1.410264
1.4257 1.351707
1.3755 1.542794
1.3706 1.543270
1.3626 1.340811
3.1878 3.102766
2.7162 2.477087
2.3442 1.924603
2.2866 2.081961
2.2759 2.034358
2.4190 2.373472
1.9764 2.036489
1.8457 1.880587
1.8286 1.683417
1.6433 1.645242
2.5330 2.472090
2.3343 2.238379
1.9931 1.981854
1.9829 2.012086
1.9358 1.809000
1.5083 1.495834
1.3448 1.334113
1.3306 1.320284
1.2897 1.278770
1.2755 1.264941
2.0638 2.063298
2.0487 1.977279
2.0133 1.818549
1.9885 1.924917
1.9329 1.949674
1.4266 1.398499
1.4249 1.369230
1.3875 1.376059
1.3479 1.318696
1.3457 1.321986
1.7906 1.827666
1.6063 1.508478
1.5972 1.592120
1.5962 1.652570
1.5681 1.542264
1.4229 1.412990
1.2640 1.234297
1.2489 1.193560
1.2355 1.201237
1.1738 1.165969
2.4852 2.366182
2.3520 2.185725
2.3233 2.269187
2.1901 2.088730
2.1574 2.020933
1.6695 1.660158
1.5550 1.511324
1.5040 1.523788
1.4195 1.438657
1.2898 1.239637
1.8995 1.801938
1.8653 1.796822
1.6428 1.523992
1.5862 1.518228
1.5370 1.451819
0.9235 1.010054
0.8017 0.946666
0.7648 0.986880
0.7644 0.984681
0.7621 0.902584
1.3336 1.372921
1.2316 1.088779
1.0949 0.974913
1.0667 0.896730
1.0340 1.178361
2.5418 2.535007
1.8940 1.912793
1.6624 1.660917
1.6601 1.619335
1.6571 1.637825
1.8230 1.852639
1.7159 1.661747
1.6076 1.696959
1.5253 1.595380
1.5064 1.481872
1.7159 1.599323
1.2968 1.131294
1.1760 1.073299
1.1449 0.894374
1.0866 1.051611
1.4072 1.539039
1.3846 1.324590
1.3439 1.279103
1.2309 1.185822
1.1523 1.336241
3.8598 4.228575
2.2553 2.372989
2.1316 2.167271
2.0950 2.003777
2.0225 2.379791
1.3488 1.118878
1.2281 1.018479
1.1886 1.173556
1.1862 1.098536
1.1688 1.123689
1.5727 1.640458
1.5719 1.272572
1.5713 1.663131
1.5708 1.478240
1.5421 1.444271
7.1863 7.228148
1.8419 1.884387
1.8245 1.955558
1.7824 1.727292
1.6935 1.611675
2.1550 2.078561
2.0977 1.938461
2.0157 1.959013
1.9900 1.840150
1.9681 1.855082
6.8683 6.871373
1.8306 1.655978
1.7617 1.642403
1.7538 1.731152
1.7441 1.608578
1.8815 1.686240
1.8551 1.762648
1.7836 1.647113
1.6865 1.624151
1.6794 1.498238
1.1292 0.777178
0.9822 0.874108
0.9821 0.975928
0.9816 0.999626
0.9816 1.042646
1.2501 1.261527
1.1652 0.850413
1.1285 1.382665
1.1151 1.046344
1.1114 1.233633
2.0401 2.017479
1.4206 1.400982
1.2224 1.208665
1.0834 1.089125
1.0581 1.046165
1.7053 1.680885
1.6570 1.585106
1.6117 1.585489
1.5894 1.467916
1.5663 1.416089
1.4989 1.488023
1.4304 1.404657
1.3148 1.288191
1.3136 1.319031
1.2711 1.317645
1.3935 1.280589
1.3398 1.365402
1.2960 1.126190
1.2915 1.230846
1.2614 1.169837
1.7052 1.718012
1.5512 1.650544
1.3906 1.462818
1.3682 1.309963
1.3597 1.361476
2.3759 2.277280
2.2833 2.141929
2.2673 2.143131
2.2434 2.114069
2.1842 2.109304
1.9777 2.044871
1.9527 1.925870
1.8442 1.730176
1.6735 1.687033
1.5747 1.454162
2.8142 2.712508
2.7803 2.686106
2.7228 2.660122
2.7181 2.653038
2.5409 2.428128
1.4436 1.408068
1.2441 1.209013
1.1974 1.190699
1.1899 1.179830
1.1569 1.041395
1.9225 1.887839
1.8610 1.621636
1.8415 1.832359
1.7774 1.760543
1.7522 1.915400
1.6918 1.419837
1.3964 1.375533
1.3541 1.403117
1.3525 1.312835
1.3495 1.179579
1.8517 1.755606
1.8231 1.648405
1.7302 1.404123
1.7280 1.476452
1.7279 1.439868
2.1275 1.965561
1.9208 1.622467
1.9198 1.765137
1.9177 1.898560
1.8968 1.880075
2.9075 2.683962
2.8318 2.681877
2.8095 2.661418
2.7629 2.795267
2.7382 2.837168
1.3814 1.314003
1.1761 1.227578
1.1297 1.200220
1.1143 1.094075
1.0972 1.068605
1.4869 1.488581
1.4788 1.430856
1.4461 1.420225
1.4239 1.439169
1.3880 1.338793
4.9549 4.956950
1.7038 1.614628
1.6511 1.514931
1.6316 1.635265
1.6258 1.507464
2.0811 2.082270
1.9495 2.087888
1.8163 1.911763
1.7577 1.801791
1.7368 1.615055
1.5313 1.496757
1.4088 1.404461
1.3589 1.357953
1.3435 1.252274
1.3412 1.315835
2.3233 2.197031
2.2732 2.038962
2.1281 2.018218
2.0100 1.942092
1.9822 1.886625
1.5819 1.505601
1.4223 1.359388
1.4141 1.344310
1.3470 1.388893
1.3470 1.388893
2.0650 2.113107
2.0570 2.117144
2.0160 1.938749
1.9394 1.939335
1.8914 1.992434
1.2412 1.276867
1.2380 1.299977
1.2277 1.210452
1.1998 1.212291
1.1676 1.125644
2.2533 2.310289
2.1369 2.348987
2.1281 2.198890
1.9698 1.950744
1.9205 2.106527
1.2216 1.208573
1.2087 1.254729
1.1660 1.200614
1.1182 1.075946
1.0828 1.142580
3.6345 3.901061
2.0213 2.012913
1.8299 1.690391
1.8058 1.638401
1.7675 1.744460
1.8641 1.825062
1.7855 1.593143
1.7559 1.710484
1.6460 1.454872
1.6215 1.579867
3.9607 4.010980
2.3905 2.220399
2.3314 2.109693
2.2703 2.177989
2.1864 2.212284
1.6700 1.644975
1.6052 1.759496
1.4986 1.516059
1.4353 1.373670
1.3800 1.337712
3.6737 3.757867
3.5938 3.649372
3.4146 3.447905
3.3214 3.312864
3.1963 3.339132
1.9428 1.895349
1.8054 1.745048
1.5543 1.469359
1.4927 1.608853
1.4855 1.563214
2.4553 2.378602
2.4360 2.483575
2.1982 1.872479
2.1365 2.034161
2.1332 2.136624
1.8556 1.849181
1.3225 1.316689
1.3046 1.296847
1.2889 1.283621
1.2878 1.281200
1.9068 1.926347
1.7891 1.655475
1.6572 1.583119
1.6469 1.621814
1.6325 1.638929
1.2438 1.255758
1.0895 0.862255
1.0123 0.902578
0.9843 0.711806
0.9382 0.821874
2.0004 1.883158
1.8058 1.707545
1.7537 1.620497
1.7378 1.561367
1.7147 1.568555
2.5601 2.595162
2.5475 2.535301
2.5376 2.540266
2.1059 2.160620
1.9295 1.953378
2.0378 2.092135
1.9544 1.951820
1.9213 1.851221
1.9085 1.743879
1.9022 1.723259
2.6638 2.647613
2.2340 2.100083
2.1692 2.036072
2.0373 2.024840
1.9691 2.034184
2.6713 2.626947
1.9931 2.043527
1.9036 1.501871
1.8950 1.826777
1.7149 1.805205
1.1296 1.011517
1.0569 1.062927
1.0278 1.054969
1.0027 1.002548
0.9223 0.777326
1.3199 1.368549
1.2794 1.087405
1.2498 1.095724
1.2392 1.310772
1.2379 1.163608
1.9571 1.865024
1.8288 1.736638
1.6467 1.593451
1.4913 1.507993
1.4784 1.490007
1.8702 1.633869
1.7915 1.644636
1.7620 1.548624
1.7616 1.570932
1.7025 1.346055
1.3975 1.435758
1.3950 1.407926
1.3878 1.331696
1.3815 1.250073
1.3325 1.230738
2.3271 2.247876
2.1781 2.104317
2.0605 2.003077
2.0335 2.386376
1.9822 2.171148
1.3289 1.384382
1.3159 1.371284
1.2889 1.261966
1.2510 1.318709
1.2460 1.284544
2.1966 2.231812
1.7771 1.712897
1.7347 1.611443
1.7261 1.669194
1.7158 1.656104
3.1493 3.028872
1.9763 1.892755
1.9368 1.905405
1.8908 1.921804
1.8561 1.938154
2.6482 2.773635
2.5566 2.701609
2.5349 2.334869
2.3539 2.142840
2.2394 2.227817
1.6192 1.649320
1.4937 1.381675
1.4609 1.423093
1.3881 1.292061
1.3700 1.258346
2.2828 2.354816
2.1297 1.866456
2.1111 1.823467
1.9721 1.856430
1.9361 1.899288
2.5415 2.319193
1.7623 1.721344
1.7182 1.644436
1.7100 1.636852
1.6950 1.647047
2.1624 1.935024
2.0566 2.022597
1.7788 1.694071
1.7705 1.660362
1.6860 1.623119
1.9457 1.894199
1.7800 1.793569
1.5648 1.491250
1.5101 1.564390
1.4853 1.465823
2.6637 2.680351
2.5429 2.457242
2.3146 2.127739
2.3057 2.285302
2.0222 1.912068
1.7047 1.695497
1.6086 1.599493
1.5202 1.510869
1.4748 1.463218
1.4101 1.401703
1.9904 1.960385
1.9856 1.909917
1.7310 1.721048
1.5292 1.463278
1.5265 1.491399
1.8410 1.781624
1.7501 1.703564
1.7003 1.580443
1.6266 1.674221
1.6056 1.522527
2.3570 2.586178
2.1860 2.245497
2.1224 2.261253
2.0746 2.200045
2.0712 2.196320
3.1451 3.189362
1.7326 1.753485
1.6796 1.611894
1.5768 1.530200
1.4027 1.385377
2.0168 1.748232
1.9632 1.877772
1.9117 1.863408
1.8537 1.831737
1.8169 1.770819
1.1025 1.061571
1.0702 1.107111
1.0603 1.037231
1.0414 1.065637
1.0352 1.060134
1.4639 1.096795
1.4418 1.041017
1.4155 1.066692
1.4006 1.013065
1.3785 0.957286
1.5581 1.544088
1.4113 1.391501
1.3951 1.400554
1.3921 1.420240
1.3536 1.326244
2.3804 2.224682
2.3270 2.207719
2.0474 1.868048
2.0100 1.750845
1.9315 1.670808
1.4035 1.231065
1.3835 1.269994
1.2965 1.180927
1.2868 1.035657
1.2833 1.032701
2.4708 2.658703
2.4446 2.663058
2.3913 2.553874
2.3233 2.506236
2.3054 2.370672
1.2509 1.231932
1.0637 1.039243
0.9748 0.953696
0.9451 0.925562
0.9314 0.911998
1.3189 1.501423
1.2567 1.169814
1.2340 1.238312
1.1691 1.078906
1.1565 1.104651
0.8724 0.867581
0.8711 0.867797
0.8512 0.845900
0.8402 0.836467
0.8350 0.831259
1.6021 1.561742
1.5907 1.590655
1.4777 1.375717
1.4495 1.447687
1.4324 1.395976
3.9619 3.927190
2.5013 2.552065
2.1026 2.076638
1.8243 1.759059
1.7469 1.722300
2.1853 2.006990
2.1756 2.326310
2.0346 2.109137
2.0277 1.809129
1.9309 1.800314
0.9423 0.842286
0.7868 0.701322
0.7658 0.587461
0.7384 0.631038
0.7120 0.614792
1.8131 1.815690
1.6820 1.632115
1.6729 1.740911
1.5342 1.486455
1.5313 1.488366
2.0326 1.912857
1.9587 1.784268
1.7862 1.671774
1.7474 1.773452
1.7432 1.723626
3.1031 3.077095
1.4857 1.505295
1.4666 1.468996
1.4075 1.378750
1.3744 1.308376
1.7489 1.701656
1.7116 1.708318
1.7031 1.684656
1.6195 1.737288
1.5407 1.564532
1.1472 0.979954
0.9869 0.870395
0.8523 0.811237
0.8479 1.106226
0.8380 0.926848
1.3326 1.500346
1.2226 1.281526
1.1863 1.508376
1.1729 1.213041
1.0824 1.154508
1.7834 1.749623
0.9747 0.892389
0.9640 0.872523
0.9539 0.938364
0.8895 0.870347
1.4944 1.347558
1.4522 1.322130
1.4299 1.271528
1.4155 1.260865
1.3557 1.202875
2.6513 2.475635
1.4341 1.242109
1.4264 1.442004
1.3335 1.390380
1.3129 1.181037
1.6606 1.441311
1.6594 1.431479
1.5598 1.414137
1.5387 1.555257
1.5338 1.310518
3.2638 3.126479
1.5568 1.519531
1.4166 1.390942
1.4051 1.358211
1.3693 1.358779
1.7735 1.674355
1.7635 1.687817
1.7524 1.583053
1.6504 1.508127
1.6126 1.562172
2.2714 2.163931
1.8786 1.791588
1.8678 1.802175
1.6612 1.645405
1.4287 1.349197
1.9031 1.665833
1.5606 1.564220
1.5514 1.559300
1.5150 1.410058
1.4717 1.631420
1.3970 1.279767
0.9145 0.881293
0.9054 0.875374
0.8566 0.934850
0.8014 0.777759
3.6796 3.502431
1.6509 1.665437
1.5674 1.231706
1.5490 1.174360
1.5321 1.278125
3.8668 3.795810
2.1358 1.945777
1.8776 1.889218
1.7097 1.781475
1.6095 1.641897
2.1838 2.062971
1.9294 1.825653
1.8496 1.713814
1.8076 1.493325
1.8053 1.491870
3.7266 3.422331
1.6629 1.390060
1.6313 1.581027
1.6059 1.427279
1.4126 1.400417
1.8837 1.563109
1.7166 1.680839
1.6008 1.484897
1.5472 1.801775
1.5259 0.888358
1.2282 1.237230
1.1398 1.004616
1.1331 1.093519
1.1244 1.064438
1.1212 1.032328
1.5728 1.514312
1.5344 1.537867
1.3749 1.411257
1.3700 1.378835
1.3693 1.334629
1.3685 1.309837
1.3516 1.331449
1.2658 1.193487
1.2506 1.198859
1.2324 1.168078
1.5268 1.569406
1.4499 1.288944
1.4290 1.361792
1.3904 1.272886
1.3855 1.376002
1.4944 1.470237
1.4338 1.403500
1.4018 1.377959
1.3854 1.362684
1.3802 1.380767
1.6049 1.640270
1.5272 1.553655
1.4598 1.397833
1.4243 1.201964
1.4170 1.472607
1.4236 1.413001
1.2401 1.229787
1.1596 1.149072
1.1402 1.131341
1.1341 1.125089
1.4767 1.424960
1.3979 1.402464
1.3954 1.445534
1.3918 1.262169
1.3365 1.319685
1.0813 1.069089
1.0013 0.989100
0.9461 0.934840
0.9370 0.924912
0.9032 0.891039
2.0601 2.066306
1.6411 1.521035
1.5994 1.569276
1.5633 1.695432
1.5498 1.427168
2.6460 2.601093
1.5487 1.519239
1.3962 1.389572
1.3460 1.281515
1.3422 1.348241
1.8130 1.707099
1.7642 1.763960
1.6342 1.608075
1.6140 1.585384
1.5749 1.543613
0.9583 0.851658
0.9244 0.866783
0.9215 0.845720
0.9205 0.839908
0.9123 0.852255
2.0473 2.123719
1.8914 1.754744
1.6261 1.486967
1.6054 1.341712
1.4645 1.349134
1.5953 1.619256
1.5268 1.339687
1.5060 1.470477
1.4177 1.405273
1.3764 1.271142
1.8815 1.506253
1.7615 1.825598
1.7610 1.815236
1.6798 1.752672
1.6243 1.807838
0.9805 0.778712
0.9047 0.846166
0.7795 0.631772
0.7618 0.777814
0.7269 0.779913
1.5012 1.395711
1.4150 1.498149
1.3542 1.522590
1.3461 1.654433
1.3170 1.266712
1.1393 1.112909
1.1130 1.101647
1.0742 1.026646
1.0570 1.067127
1.0499 1.035653
1.5622 1.477862
1.4532 1.495869
1.4389 1.322552
1.4308 1.585347
1.3823 1.433753
1.5262 1.499238
1.5019 1.332181
1.4373 1.377031
1.3103 1.273579
1.3033 1.230969
1.9877 1.783702
1.7400 1.572266
1.6598 1.561065
1.4641 1.330413
1.4631 1.269181
1.2190 1.132447
1.1739 1.137867
1.1614 1.047097
1.1423 1.104155
1.1382 1.109750
1.4802 1.390126
1.4617 1.371087
1.4042 1.341133
1.3625 1.576309
1.3299 1.199986
1.3641 1.240420
1.2628 1.143612
1.2369 1.160384
1.1839 1.083243
1.1064 1.020222
2.0143 1.823491
1.5688 1.546480
1.5288 1.322879
1.4994 1.333409
1.4982 1.488445
1.1885 1.189477
1.0819 1.005685
1.0797 1.150126
1.0687 1.148190
1.0388 1.113269
2.1495 1.867429
1.8127 1.735152
1.7996 1.514990
1.4485 1.347921
1.4264 1.134963
1.1584 1.149800
1.1241 1.116541
1.1098 1.100481
1.0758 1.068958
1.0103 1.001910
1.7586 1.699381
1.7546 1.724622
1.6688 1.719778
1.6675 1.812756
1.6149 1.540454
1.2580 1.236260
1.2451 1.251519
1.2447 1.207004
1.2002 1.177953
1.1980 1.125872
1.8939 1.707062
1.7375 1.723630
1.7284 1.497389
1.7042 1.563128
1.6613 1.637177
1.2573 1.246172
1.1688 1.157413
1.0688 1.056134
1.0663 1.027308
1.0628 1.020383
1.7906 1.567378
1.6489 1.664104
1.6024 1.573811
1.5867 1.491931
1.5437 1.466055
1.4954 1.486803
1.4728 1.464396
1.4682 1.424959
1.4605 1.452376
1.4572 1.452845
2.4182 2.460411
1.9409 2.009443
1.8697 1.814635
1.7595 1.819531
1.7522 1.718672
0.7274 0.365713
0.7274 0.525383
0.7144 0.437850
0.6592 1.258228
0.6543 1.156147
0.8245 1.610562
0.8104 1.504567
0.8079 0.169390
0.7957 0.009742
0.7923 1.075305
1.7812 1.836290
1.5953 1.538181
1.5859 1.566210
1.5085 1.424998
1.4972 1.445543
1.4032 1.285862
1.3333 1.398343
1.3182 1.322956
1.2537 1.227100
1.2528 1.167931
1.5482 1.541130
1.3785 1.370039
1.3603 1.353214
1.3481 1.338909
1.3307 1.322565
2.2085 2.180573
2.0123 1.926318
2.0051 1.861899
1.9794 1.982804
1.8691 1.768438
1.6578 1.651356
1.4143 1.392669
1.4135 1.418164
1.3552 1.344760
1.3148 1.297233
2.2744 2.296248
2.1898 2.247512
2.1699 2.170587
2.0570 2.088219
2.0511 2.254368
1.9487 1.859847
1.9281 1.803447
1.8021 1.651906
1.7209 1.686238
1.7075 1.602693
2.4805 2.288914
2.0192 2.040035
1.9271 1.812106
1.8749 1.709039
1.8645 1.719802
1.0438 1.017880
0.9239 0.797509
0.9041 0.753297
0.8950 0.710013
0.8257 0.755112
1.1464 1.429019
1.1393 1.574799
1.0948 1.250066
1.0657 1.169584
1.0065 0.902516
0.7031 1.022412
0.6343 0.780888
0.5485 1.178524
0.5269 0.729310
0.4988 1.094867
0.7623 0.340966
0.7065 1.007036
0.6912 0.441209
0.6817 0.742382
0.6745 0.433691
1.3273 1.363366
1.3196 1.296107
1.0770 1.013553
0.9786 0.943769
0.9368 0.886785
4.3405 4.337891
2.3134 2.360377
1.9878 1.841963
1.9070 1.893820
1.8968 1.868384
1.4263 1.417663
1.3225 1.351892
1.2931 1.284539
1.2856 1.277747
1.2509 1.243418
1.5893 1.458486
1.4777 1.483712
1.4751 1.486564
1.4569 1.462276
1.4299 1.341992
1.2541 1.506770
1.1471 1.049105
1.1087 1.069864
1.0696 0.949802
1.0641 0.898933
2.1397 1.919990
2.1202 2.040037
1.9845 1.761732
1.9115 1.874218
1.7839 1.696494
3.3539 3.304021
2.5130 2.467540
2.0949 2.003226
2.0446 1.967086
1.9570 1.873224
1.8007 1.525893
1.6346 1.392224
1.5393 1.487728
1.5098 1.653626
1.5097 1.476772
1.8273 1.796621
1.7829 1.747201
1.7724 1.754090
1.7463 1.829438
1.7382 1.717160
1.9192 1.806581
1.7921 1.802270
1.7285 1.612156
1.7212 1.724891
1.7136 1.701386
1.7077 1.378813
1.5776 1.239500
1.2805 0.970013
1.2661 0.831482
1.2408 0.913795
2.2059 1.129355
2.1060 1.644550
2.0772 1.181883
1.8888 1.084083
1.8255 1.767615
1.3203 1.192986
1.3137 1.560291
1.2860 1.181414
1.2290 1.108815
1.2053 1.076606
1.8192 1.765556
1.5385 1.668680
1.4566 1.906809
1.4182 1.400835
1.3902 1.735823
1.3222 1.346111
1.3067 1.279664
1.2133 1.139156
1.2090 1.101122
1.2046 1.279020
